vhdl work "ipcore_dir/INS_CLOCK.vhd"
vhdl work "ipcore_dir/INS_ICON.vhd"
vhdl work "ipcore_dir/INS_ILA.vhd"
vhdl work "../THERMO.vhd"
vhdl work "../debounce.vhd"
vhdl work "../COMMUNITY_TB.vhd"
